%!PS-Adobe-3.0 
%%Creator: MATLAB, The Mathworks, Inc. Version 7.8.0.347 (R2009a). Operating System: Linux 2.6.38-8-generic #42-Ubuntu SMP Mon Apr 11 03:31:24 UTC 2011 x86_64.
%%Title: ./x.ps
%%CreationDate: 04/05/2012  12:00:40
%%DocumentNeededFonts: Helvetica
%%DocumentProcessColors: Cyan Magenta Yellow Black
%%LanguageLevel: 2
%%Pages: (atend)
%%BoundingBox: (atend)
%%EndComments

%%BeginProlog
% MathWorks dictionary
/MathWorks 160 dict begin
% definition operators
/bdef {bind def} bind def
/ldef {load def} bind def
/xdef {exch def} bdef
/xstore {exch store} bdef
% operator abbreviations
/c  /clip ldef
/cc /concat ldef
/cp /closepath ldef
/gr /grestore ldef
/gs /gsave ldef
/mt /moveto ldef
/np /newpath ldef
/cm /currentmatrix ldef
/sm /setmatrix ldef
/rm /rmoveto ldef
/rl /rlineto ldef
/s {show newpath} bdef
/sc {setcmykcolor} bdef
/sr /setrgbcolor ldef
/sg /setgray ldef
/w /setlinewidth ldef
/j /setlinejoin ldef
/cap /setlinecap ldef
/rc {rectclip} bdef
/rf {rectfill} bdef
% page state control
/pgsv () def
/bpage {/pgsv save def} bdef
/epage {pgsv restore} bdef
/bplot /gsave ldef
/eplot {stroke grestore} bdef
% orientation switch
/portraitMode 0 def /landscapeMode 1 def /rotateMode 2 def
% coordinate system mappings
/dpi2point 0 def
% font control
/FontSize 0 def
/FMS {/FontSize xstore findfont [FontSize 0 0 FontSize neg 0 0]
  makefont setfont} bdef
/reencode {exch dup where {pop load} {pop StandardEncoding} ifelse
  exch dup 3 1 roll findfont dup length dict begin
  { 1 index /FID ne {def}{pop pop} ifelse } forall
  /Encoding exch def currentdict end definefont pop} bdef
/isroman {findfont /CharStrings get /Agrave known} bdef
/FMSR {3 1 roll 1 index dup isroman {reencode} {pop pop} ifelse
  exch FMS} bdef
/csm {1 dpi2point div -1 dpi2point div scale neg translate
 dup landscapeMode eq {pop -90 rotate}
  {rotateMode eq {90 rotate} if} ifelse} bdef
% line types: solid, dotted, dashed, dotdash
/SO { [] 0 setdash } bdef
/DO { [.5 dpi2point mul 4 dpi2point mul] 0 setdash } bdef
/DA { [6 dpi2point mul] 0 setdash } bdef
/DD { [.5 dpi2point mul 4 dpi2point mul 6 dpi2point mul 4
  dpi2point mul] 0 setdash } bdef
% macros for lines and objects
/L {lineto stroke} bdef
/MP {3 1 roll moveto 1 sub {rlineto} repeat} bdef
/AP {{rlineto} repeat} bdef
/PDlw -1 def
/W {/PDlw currentlinewidth def setlinewidth} def
/PP {closepath eofill} bdef
/DP {closepath stroke} bdef
/MR {4 -2 roll moveto dup  0 exch rlineto exch 0 rlineto
  neg 0 exch rlineto closepath} bdef
/FR {MR stroke} bdef
/PR {MR fill} bdef
/L1i {{currentfile picstr readhexstring pop} image} bdef
/tMatrix matrix def
/MakeOval {newpath tMatrix currentmatrix pop translate scale
0 0 1 0 360 arc tMatrix setmatrix} bdef
/FO {MakeOval stroke} bdef
/PO {MakeOval fill} bdef
/PD {currentlinewidth 2 div 0 360 arc fill
   PDlw -1 eq not {PDlw w /PDlw -1 def} if} def
/FA {newpath tMatrix currentmatrix pop translate scale
  0 0 1 5 -2 roll arc tMatrix setmatrix stroke} bdef
/PA {newpath tMatrix currentmatrix pop	translate 0 0 moveto scale
  0 0 1 5 -2 roll arc closepath tMatrix setmatrix fill} bdef
/FAn {newpath tMatrix currentmatrix pop translate scale
  0 0 1 5 -2 roll arcn tMatrix setmatrix stroke} bdef
/PAn {newpath tMatrix currentmatrix pop translate 0 0 moveto scale
  0 0 1 5 -2 roll arcn closepath tMatrix setmatrix fill} bdef
/vradius 0 def /hradius 0 def /lry 0 def
/lrx 0 def /uly 0 def /ulx 0 def /rad 0 def
/MRR {/vradius xdef /hradius xdef /lry xdef /lrx xdef /uly xdef
  /ulx xdef newpath tMatrix currentmatrix pop ulx hradius add uly
  vradius add translate hradius vradius scale 0 0 1 180 270 arc 
  tMatrix setmatrix lrx hradius sub uly vradius add translate
  hradius vradius scale 0 0 1 270 360 arc tMatrix setmatrix
  lrx hradius sub lry vradius sub translate hradius vradius scale
  0 0 1 0 90 arc tMatrix setmatrix ulx hradius add lry vradius sub
  translate hradius vradius scale 0 0 1 90 180 arc tMatrix setmatrix
  closepath} bdef
/FRR {MRR stroke } bdef
/PRR {MRR fill } bdef
/MlrRR {/lry xdef /lrx xdef /uly xdef /ulx xdef /rad lry uly sub 2 div def
  newpath tMatrix currentmatrix pop ulx rad add uly rad add translate
  rad rad scale 0 0 1 90 270 arc tMatrix setmatrix lrx rad sub lry rad
  sub translate rad rad scale 0 0 1 270 90 arc tMatrix setmatrix
  closepath} bdef
/FlrRR {MlrRR stroke } bdef
/PlrRR {MlrRR fill } bdef
/MtbRR {/lry xdef /lrx xdef /uly xdef /ulx xdef /rad lrx ulx sub 2 div def
  newpath tMatrix currentmatrix pop ulx rad add uly rad add translate
  rad rad scale 0 0 1 180 360 arc tMatrix setmatrix lrx rad sub lry rad
  sub translate rad rad scale 0 0 1 0 180 arc tMatrix setmatrix
  closepath} bdef
/FtbRR {MtbRR stroke } bdef
/PtbRR {MtbRR fill } bdef
/stri 6 array def /dtri 6 array def
/smat 6 array def /dmat 6 array def
/tmat1 6 array def /tmat2 6 array def /dif 3 array def
/asub {/ind2 exch def /ind1 exch def dup dup
  ind1 get exch ind2 get sub exch } bdef
/tri_to_matrix {
  2 0 asub 3 1 asub 4 0 asub 5 1 asub
  dup 0 get exch 1 get 7 -1 roll astore } bdef
/compute_transform {
  dmat dtri tri_to_matrix tmat1 invertmatrix 
  smat stri tri_to_matrix tmat2 concatmatrix } bdef
/ds {stri astore pop} bdef
/dt {dtri astore pop} bdef
/db {2 copy /cols xdef /rows xdef mul dup string
  currentfile 
  3 index 0 eq {/ASCIIHexDecode filter}
  {/ASCII85Decode filter 3 index 2 eq {/RunLengthDecode filter} if }
  ifelse exch readstring pop
  /bmap xdef pop pop} bdef
/it {gs np dtri aload pop moveto lineto lineto cp c
  cols rows 8 compute_transform 
  {bmap} image gr}bdef
/il {newpath moveto lineto stroke}bdef
currentdict end def
%%EndProlog

%%BeginSetup
MathWorks begin

0 cap

end
%%EndSetup

%%Page: 1 1
%%BeginPageSetup
%%PageBoundingBox:    70   215   550   589
MathWorks begin
bpage
%%EndPageSetup

%%BeginObject: obj1
bplot

/dpi2point 12 def
portraitMode 0216 7344 csm

  628   274  5759  4487 rc
85 dict begin %Colortable dictionary
/c0 { 0.000000 0.000000 0.000000 sr} bdef
/c1 { 1.000000 1.000000 1.000000 sr} bdef
/c2 { 0.900000 0.000000 0.000000 sr} bdef
/c3 { 0.000000 0.820000 0.000000 sr} bdef
/c4 { 0.000000 0.000000 0.800000 sr} bdef
/c5 { 0.910000 0.820000 0.320000 sr} bdef
/c6 { 1.000000 0.260000 0.820000 sr} bdef
/c7 { 0.000000 0.820000 0.820000 sr} bdef
c0
1 j
1 sg
   0    0 6913 5186 rf
6 w
0 4226 5356 0 0 -4226 899 4615 4 MP
PP
-5356 0 0 4226 5356 0 0 -4226 899 4615 5 MP stroke
4 w
DO
SO
6 w
0 sg
 899 4615 mt 6255 4615 L
 899 4615 mt  899  389 L
 899 4615 mt  899 4561 L
%%IncludeResource: font Helvetica
/Helvetica /ISOLatin1Encoding 120 FMSR

 746 4760 mt 
(-0.8) s
1664 4615 mt 1664 4561 L
1511 4760 mt 
(-0.6) s
2429 4615 mt 2429 4561 L
2276 4760 mt 
(-0.4) s
3194 4615 mt 3194 4561 L
3041 4760 mt 
(-0.2) s
3959 4615 mt 3959 4561 L
3926 4760 mt 
(0) s
4724 4615 mt 4724 4561 L
4641 4760 mt 
(0.2) s
5489 4615 mt 5489 4561 L
5406 4760 mt 
(0.4) s
6255 4615 mt 6255 4561 L
6172 4760 mt 
(0.6) s
 899 4615 mt  952 4615 L
 628 4659 mt 
(-0.8) s
 899 4011 mt  952 4011 L
 628 4055 mt 
(-0.6) s
 899 3407 mt  952 3407 L
 628 3451 mt 
(-0.4) s
 899 2803 mt  952 2803 L
 628 2847 mt 
(-0.2) s
 899 2200 mt  952 2200 L
 798 2244 mt 
(0) s
 899 1596 mt  952 1596 L
 698 1640 mt 
(0.2) s
 899  992 mt  952  992 L
 698 1036 mt 
(0.4) s
 899  389 mt  952  389 L
 698  433 mt 
(0.6) s
gs 899 389 5357 4227 rc
0 17 1 17 1 17 0 17 2 17 1 17 1 17 2 16 
2 17 2 17 3 17 2 17 3 17 3 17 4 16 3 17 
4 17 4 16 4 17 4 17 5 16 4 17 5 16 5 17 
6 16 5 16 6 17 6 16 6 16 7 16 6 17 7 16 
7 16 7 16 8 15 7 16 8 16 8 16 8 15 9 16 
8 15 9 16 9 15 9 16 10 15 9 15 10 15 10 15 
10 15 10 15 11 15 11 14 11 15 11 14 11 15 11 14 
12 14 12 14 12 14 12 14 12 14 13 14 12 14 13 13 
13 14 13 13 14 13 13 13 14 13 14 13 14 13 14 13 
14 12 15 13 14 12 15 12 15 12 15 12 15 12 16 12 
15 12 16 11 16 11 16 12 16 11 16 11 17 11 16 10 
17 11 17 10 17 11 17 10 17 10 17 10 18 10 17 9 
18 10 18 9 18 10 18 9 18 9 18 8 18 9 19 9 
18 8 19 8 19 8 19 8 19 8 19 8 19 7 19 7 
20 7 19 8 20 6 19 7 20 7 20 6 20 6 20 6 
20 6 20 6 20 6 20 5 20 5 21 5 20 5 21 5 
20 5 21 4 21 5 20 4 21 4 21 4 21 3 21 4 
21 3 21 3 21 3 21 3 21 3 21 2 21 2 21 3 
21 2 22 1 21 2 21 2 21 1 22 1 21 1 21 1 
22 0 21 1 21 0 22 0 21 0 21 0 22 0 21 -1 
21 0 22 -1 21 -1 21 -1 22 -2 21 -1 21 -2 21 -2 
21 -2 22 -2 21 -3 21 -2 21 -3 21 -3 21 -3 21 -3 
21 -3 20 -4 21 -4 21 -3 21 -4 20 -5 21 -4 21 -4 
20 -5 20 -5 21 -5 20 -5 20 -5 20 -6 20 -6 21 -5 
19 -6 20 -6 20 -7 20 -6 19 -7 20 -6 19 -7 20 -7 
19 -7 19 -8 19 -7 19 -8 19 -8 19 -8 18 -8 19 -8 
18 -8 19 -9 18 -8 18 -9 18 -9 18 -9 18 -10 18 -9 
17 -9 18 -10 17 -10 17 -10 17 -10 17 -10 17 -10 16 -11 
17 -10 16 -11 17 -11 16 -11 16 -11 16 -11 15 -11 16 -12 
15 -12 15 -11 16 -12 14 -12 15 -12 15 -12 14 -12 15 -13 
14 -12 14 -13 14 -13 13 -13 14 -13 13 -13 13 -13 13 -13 
13 -13 13 -14 13 -13 12 -14 12 -14 12 -14 12 -14 11 -14 
12 -14 11 -14 11 -14 11 -15 11 -14 10 -15 11 -14 10 -15 
10 -15 10 -15 9 -15 10 -15 9 -15 9 -15 9 -15 8 -15 
9 -16 8 -15 8 -16 8 -15 8 -16 7 -15 7 -16 8 -16 
6 -16 7 -16 7 -16 6 -16 6 -16 6 -16 5 -16 6 -16 
5 -16 5 -17 5 -16 4 -16 5 -17 4 -16 4 -17 4 -16 
3 -16 4 -17 3 -17 1862 1952 300 MP stroke
3 -16 3 -17 2 -16 2 -17 3 -17 1 -16 2 -17 2 -17 
1 -16 1 -17 1 -17 0 -16 1 -17 0 -50 -1 -17 0 -17 
-1 -16 -1 -17 -2 -17 -1 -16 -2 -17 -2 -17 -2 -16 -2 -17 
-3 -17 -3 -16 -3 -17 -3 -16 -3 -17 -4 -16 -4 -17 -4 -16 
-4 -16 -4 -17 -5 -16 -5 -16 -5 -16 -5 -17 -5 -16 -6 -16 
-6 -16 -6 -16 -6 -16 -7 -16 -6 -16 -7 -15 -7 -16 -8 -16 
-7 -15 -8 -16 -8 -15 -8 -16 -8 -15 -8 -16 -9 -15 -9 -15 
-9 -15 -9 -15 -9 -15 -10 -15 -10 -15 -10 -14 -10 -15 -10 -15 
-11 -14 -11 -14 -10 -15 -11 -14 -12 -14 -11 -14 -12 -14 -11 -14 
-12 -14 -13 -13 -12 -14 -12 -13 -13 -14 -13 -13 -13 -13 -13 -13 
-13 -13 -14 -13 -13 -13 -14 -12 -14 -13 -14 -12 -14 -13 -15 -12 
-14 -12 -15 -12 -15 -12 -15 -11 -15 -12 -15 -11 -16 -12 -15 -11 
-16 -11 -16 -11 -16 -11 -16 -11 -16 -10 -17 -11 -16 -10 -17 -10 
-17 -10 -17 -10 -17 -10 -17 -10 -17 -9 -18 -10 -17 -9 -18 -9 
-18 -9 -17 -9 -18 -9 -18 -8 -19 -9 -18 -8 -18 -8 -19 -8 
-18 -8 -19 -7 -19 -8 -19 -7 -19 -8 -19 -7 -19 -7 -19 -6 
-20 -7 -19 -6 -20 -7 -19 -6 -20 -6 -19 -6 -20 -6 -20 -5 
-20 -5 -20 -6 -20 -5 -20 -5 -20 -4 -21 -5 -20 -4 -20 -5 
-21 -4 -20 -4 -21 -4 -20 -3 -21 -4 -20 -3 -21 -3 -21 -3 
-21 -3 -20 -3 -21 -2 -21 -2 -21 -3 -21 -2 -21 -1 -21 -2 
-21 -1 -21 -2 -21 -1 -21 -1 -21 -1 -21 0 -21 -1 -21 0 
-21 0 -21 0 -21 0 -21 0 -21 1 -21 0 -21 1 -21 1 
-21 1 -21 2 -21 1 -21 2 -21 1 -20 2 -21 3 -21 2 
-21 2 -21 3 -20 3 -21 3 -21 3 -20 3 -21 4 -20 3 
-21 4 -20 4 -21 4 -20 4 -20 5 -20 4 -21 5 -20 5 
-20 5 -20 5 -19 6 -20 5 -20 6 -20 6 -19 6 -20 6 
-19 6 -19 7 -20 6 -19 7 -19 7 -19 7 -19 7 -19 7 
-18 8 -19 8 -19 7 -18 8 -18 8 -18 9 -19 8 -18 9 
-17 8 -18 9 -18 9 -17 9 -18 9 -17 10 -17 9 -17 10 
-17 9 -17 10 -17 10 -17 10 -16 11 -16 10 -16 11 -16 10 
-16 11 -16 11 -16 11 -15 11 -16 11 -15 12 -15 11 -15 12 
-14 12 -15 12 -15 12 -14 12 -14 12 -14 12 -14 13 -13 12 
-14 13 -13 13 -14 12 -13 13 -12 13 -13 14 -13 13 -12 13 
-12 14 -12 13 -12 14 -12 13 -11 14 -11 14 -12 14 -11 14 
-10 14 -11 15 -10 14 -11 14 -10 15 -9 14 -10 15 -10 15 
-9 15 -9 14 -9 15 -9 15 -8 15 -9 16 -8 15 -8 15 
-8 15 -7 16 -8 15 -7 16 -7 15 -7 16 -6 16 -7 15 
-6 16 -6 16 -6 16 5969 2656 300 MP stroke
-5 16 -5 16 -6 16 -5 16 -4 16 -5 16 -4 16 -5 16 
-4 16 -3 16 -4 17 -3 16 -3 16 -3 17 -3 16 -3 16 
-2 17 -2 16 -2 16 -2 17 -1 16 -1 17 -1 16 -1 17 
-1 16 0 83 1 16 1 17 1 16 1 16 1 17 2 16 
2 17 2 16 2 16 3 17 2 16 3 16 3 17 4 16 
3 16 4 16 4 17 4 16 4 16 5 16 4 16 5 16 
6 16 5 16 5 16 6 15 6 16 6 16 7 16 6 15 
7 16 7 15 7 16 7 15 8 16 8 15 7 15 9 15 
8 15 8 15 9 15 9 15 9 15 9 15 10 14 9 15 
10 14 10 15 10 14 10 15 11 14 11 14 11 14 11 14 
11 14 11 13 12 14 12 14 11 13 13 13 12 14 12 13 
13 13 13 13 12 13 14 13 13 12 13 13 14 12 13 13 
14 12 14 12 15 12 14 12 14 12 15 12 15 11 15 12 
15 11 15 11 15 11 16 11 15 11 16 11 16 10 16 11 
16 10 16 10 17 10 16 10 17 10 17 10 17 9 17 10 
17 9 17 9 18 9 17 9 18 9 17 8 18 9 18 8 
18 8 18 8 18 8 19 8 18 8 19 7 18 7 19 8 
19 7 19 6 19 7 19 7 19 6 19 6 19 6 20 6 
19 6 19 6 20 5 20 6 19 5 20 5 20 5 20 4 
20 5 20 4 20 5 20 4 20 4 20 3 21 4 20 3 
20 4 20 3 21 3 20 3 21 2 20 3 21 2 20 2 
21 2 21 2 20 2 21 1 21 1 20 2 21 1 21 0 
20 1 21 1 21 0 21 0 20 0 21 0 21 0 21 -1 
20 0 21 -1 21 -1 20 -1 21 -1 21 -2 20 -1 21 -2 
20 -2 21 -2 21 -3 20 -2 20 -3 21 -2 20 -3 21 -3 
20 -3 20 -4 20 -3 21 -4 20 -4 20 -4 20 -4 20 -4 
20 -5 20 -5 19 -4 20 -5 20 -5 19 -6 20 -5 19 -6 
20 -5 19 -6 19 -6 19 -7 19 -6 19 -6 19 -7 19 -7 
19 -7 19 -7 18 -7 19 -7 18 -8 18 -8 18 -7 18 -8 
18 -8 18 -9 18 -8 18 -9 17 -8 18 -9 17 -9 17 -9 
17 -9 17 -9 17 -10 17 -9 16 -10 17 -10 16 -10 16 -10 
17 -10 15 -11 16 -10 16 -11 16 -11 15 -10 15 -11 15 -11 
15 -12 15 -11 15 -11 15 -12 14 -12 14 -11 14 -12 14 -12 
14 -12 14 -13 13 -12 14 -12 13 -13 13 -13 13 -12 12 -13 
13 -13 12 -13 12 -13 12 -14 12 -13 12 -13 12 -14 11 -13 
11 -14 11 -14 11 -14 11 -14 10 -14 10 -14 10 -14 10 -14 
10 -15 10 -14 9 -15 9 -14 9 -15 9 -15 9 -14 8 -15 
9 -15 8 -15 7 -15 2054 1578 300 MP stroke
8 -15 8 -15 7 -15 7 -16 7 -15 7 -15 6 -16 7 -15 
6 -16 6 -15 5 -16 6 -16 5 -15 5 -16 5 -16 5 -16 
5 -16 4 -16 4 -15 4 -16 4 -16 3 -16 4 -16 3 -17 
3 -16 3 -16 2 -16 2 -16 2 -16 2 -16 2 -17 2 -16 
1 -16 1 -16 1 -16 0 -17 1 -16 0 -65 -1 -16 -1 -16 
-1 -16 -1 -17 -1 -16 -2 -16 -2 -16 -2 -16 -2 -17 -2 -16 
-3 -16 -3 -16 -3 -16 -3 -16 -3 -16 -4 -16 -4 -16 -4 -16 
-4 -16 -5 -15 -4 -16 -5 -16 -5 -16 -5 -15 -6 -16 -5 -16 
-6 -15 -6 -16 -6 -15 -7 -16 -6 -15 -7 -15 -7 -16 -7 -15 
-8 -15 -7 -15 -8 -15 -8 -15 -8 -15 -9 -15 -8 -14 -9 -15 
-9 -15 -9 -14 -9 -15 -10 -14 -9 -14 -10 -15 -10 -14 -10 -14 
-10 -14 -11 -14 -11 -14 -11 -13 -11 -14 -11 -13 -11 -14 -12 -13 
-11 -14 -12 -13 -12 -13 -13 -13 -12 -13 -12 -13 -13 -12 -13 -13 
-13 -13 -13 -12 -14 -12 -13 -12 -14 -13 -14 -12 -13 -11 -15 -12 
-14 -12 -14 -11 -15 -12 -14 -11 -15 -11 -15 -11 -15 -11 -15 -11 
-16 -11 -15 -10 -16 -11 -16 -10 -16 -10 -16 -10 -16 -10 -16 -10 
-17 -10 -16 -9 -17 -10 -16 -9 -17 -9 -17 -9 -17 -9 -18 -9 
-17 -9 -17 -8 -18 -9 -18 -8 -17 -8 -18 -8 -18 -8 -18 -7 
-18 -8 -18 -7 -19 -7 -18 -7 -19 -7 -18 -7 -19 -7 -19 -6 
-19 -7 -18 -6 -19 -6 -20 -6 -19 -5 -19 -6 -19 -5 -19 -6 
-20 -5 -19 -5 -20 -5 -19 -4 -20 -5 -20 -4 -20 -4 -19 -4 
-20 -4 -20 -4 -20 -4 -20 -3 -20 -3 -20 -3 -20 -3 -20 -3 
-21 -3 -20 -2 -20 -2 -20 -3 -21 -2 -20 -1 -20 -2 -21 -2 
-20 -1 -20 -1 -21 -1 -20 -1 -21 -1 -20 0 -20 -1 -21 0 
-20 0 -21 0 -20 1 -21 0 -20 1 -20 0 -21 1 -20 1 
-21 2 -20 1 -20 1 -21 2 -20 2 -20 2 -20 2 -20 3 
-21 2 -20 3 -20 3 -20 3 -20 3 -20 3 -20 4 -20 3 
-20 4 -19 4 -20 4 -20 4 -19 5 -20 4 -20 5 -19 5 
-19 5 -20 5 -19 5 -19 6 -19 5 -19 6 -19 6 -19 6 
-19 6 -19 7 -18 6 -19 7 -18 7 -19 7 -18 7 -18 7 
-18 7 -18 8 -18 8 -18 7 -18 8 -18 8 -17 9 -17 8 
-18 9 -17 8 -17 9 -17 9 -17 9 -17 9 -16 9 -17 10 
-16 9 -16 10 -16 10 -16 10 -16 10 -16 10 -16 10 -15 11 
-16 10 -15 11 -15 11 -15 11 -15 11 -14 11 -15 11 -14 12 
-14 11 -14 12 -14 11 -14 12 -14 12 -13 12 -14 12 -13 12 
-13 13 -13 12 -12 13 -13 12 -12 13 -13 13 -12 13 -11 13 
-12 13 -12 13 -11 14 -11 13 -11 13 -11 14 -11 14 -10 13 
-11 14 -10 14 -10 14 5730 2988 300 MP stroke
-10 14 -9 14 -10 14 -9 15 -9 14 -9 14 -9 15 -8 15 
-9 14 -8 15 -8 15 -8 14 -7 15 -8 15 -7 15 -7 15 
-7 15 -7 15 -6 16 -6 15 -6 15 -6 16 -6 15 -6 15 
-5 16 -5 15 -5 16 -5 15 -4 16 -4 16 -4 15 -4 16 
-4 16 -4 16 -3 15 -3 16 -3 16 -3 16 -2 16 -2 16 
-3 16 -1 16 -2 16 -2 16 -1 16 -1 16 -1 16 -1 16 
0 32 -1 16 1 16 0 32 1 16 1 16 1 16 2 15 
1 16 2 16 2 16 2 16 2 16 3 16 3 16 3 16 
3 15 3 16 4 16 3 16 4 15 4 16 5 16 4 15 
5 16 5 15 5 16 5 15 6 16 6 15 6 15 6 15 
6 16 6 15 7 15 7 15 7 15 7 15 8 15 7 14 
8 15 8 15 8 14 9 15 8 14 9 15 9 14 9 14 
9 15 10 14 9 14 10 14 10 14 10 13 11 14 10 14 
11 13 11 14 11 13 11 14 11 13 12 13 12 13 11 13 
12 13 13 12 12 13 12 13 13 12 13 12 13 13 13 12 
13 12 14 12 13 12 14 11 14 12 14 11 14 12 14 11 
15 11 14 11 15 11 15 11 15 11 15 10 15 11 16 10 
15 10 16 10 16 10 15 10 16 10 17 9 16 10 16 9 
17 9 16 9 17 9 17 9 17 9 17 8 17 9 17 8 
18 8 17 8 18 8 17 8 18 7 18 8 18 7 18 7 
18 7 18 7 19 7 18 6 19 6 18 7 19 6 18 6 
19 6 19 5 19 6 19 5 19 5 19 6 19 5 19 4 
20 5 19 4 20 5 19 4 20 4 19 4 20 3 19 4 
20 3 20 4 20 3 19 3 20 2 20 3 20 2 20 3 
20 2 20 2 20 2 20 1 20 2 20 1 20 1 20 1 
20 1 20 1 21 0 20 1 20 0 20 0 20 0 20 0 
20 -1 21 0 20 -1 20 -1 20 -1 20 -1 20 -1 20 -2 
20 -1 20 -2 20 -2 20 -2 20 -3 20 -2 20 -3 19 -3 
20 -2 20 -4 20 -3 19 -3 20 -4 19 -3 20 -4 19 -4 
20 -4 19 -5 19 -4 20 -5 19 -5 19 -4 19 -6 19 -5 
19 -5 19 -6 19 -5 18 -6 19 -6 18 -6 19 -6 18 -7 
19 -6 18 -7 18 -7 18 -7 18 -7 18 -7 18 -8 17 -7 
18 -8 17 -8 18 -8 17 -8 17 -8 17 -8 17 -9 17 -8 
17 -9 16 -9 17 -9 16 -9 17 -9 16 -10 16 -9 16 -10 
16 -10 15 -10 16 -10 15 -10 15 -10 16 -11 15 -10 15 -11 
14 -10 15 -11 14 -11 15 -11 14 -11 14 -12 14 -11 14 -12 
13 -11 14 -12 13 -12 13 -12 13 -12 13 -12 13 -12 12 -13 
13 -12 12 -13 12 -12 2357 1248 300 MP stroke
12 -13 12 -13 11 -13 11 -13 12 -13 11 -13 11 -13 10 -14 
11 -13 10 -14 11 -13 10 -14 10 -14 9 -13 10 -14 9 -14 
9 -14 9 -15 9 -14 9 -14 8 -14 9 -15 8 -14 8 -15 
7 -14 8 -15 7 -15 7 -14 7 -15 7 -15 7 -15 6 -15 
6 -15 6 -15 6 -15 6 -15 5 -15 5 -16 5 -15 5 -15 
5 -16 4 -15 5 -15 4 -16 4 -15 3 -16 4 -15 3 -16 
3 -16 3 -15 3 -16 2 -16 3 -15 2 -16 2 -16 1 -15 
2 -16 1 -16 1 -16 1 -15 1 -16 1 -16 0 -63 -1 -16 
-1 -15 -1 -16 -1 -16 -1 -16 -1 -15 -2 -16 -2 -16 -2 -16 
-2 -15 -3 -16 -2 -15 -3 -16 -3 -16 -4 -15 -3 -16 -4 -15 
-4 -16 -4 -15 -4 -15 -4 -16 -5 -15 -5 -15 -5 -16 -5 -15 
-6 -15 -5 -15 -6 -15 -6 -15 -6 -15 -6 -15 -7 -15 -7 -15 
-7 -15 -7 -14 -7 -15 -8 -15 -7 -14 -8 -15 -8 -14 -8 -14 
-9 -15 -8 -14 -9 -14 -9 -14 -9 -14 -9 -14 -10 -14 -10 -14 
-9 -13 -10 -14 -10 -13 -11 -14 -10 -13 -11 -14 -11 -13 -11 -13 
-11 -13 -11 -13 -12 -13 -11 -13 -12 -12 -12 -13 -12 -12 -13 -13 
-12 -12 -13 -12 -12 -12 -13 -12 -13 -12 -14 -12 -13 -11 -13 -12 
-14 -11 -14 -12 -14 -11 -14 -11 -14 -11 -14 -11 -15 -11 -15 -11 
-14 -10 -15 -11 -15 -10 -15 -10 -16 -10 -15 -10 -16 -10 -15 -10 
-16 -9 -16 -10 -16 -9 -16 -9 -16 -9 -17 -9 -16 -9 -17 -9 
-16 -8 -17 -9 -17 -8 -17 -8 -17 -8 -17 -8 -18 -8 -17 -7 
-17 -8 -18 -7 -18 -7 -17 -7 -18 -7 -18 -7 -18 -7 -18 -6 
-19 -7 -18 -6 -18 -6 -19 -6 -18 -6 -19 -5 -18 -6 -19 -5 
-19 -5 -19 -5 -18 -5 -19 -5 -19 -4 -19 -5 -20 -4 -19 -4 
-19 -4 -19 -4 -20 -4 -19 -3 -19 -4 -20 -3 -19 -3 -20 -3 
-19 -2 -20 -3 -19 -2 -20 -3 -20 -2 -20 -2 -19 -2 -20 -1 
-20 -2 -20 -1 -19 -1 -20 -1 -20 -1 -20 -1 -20 -1 -19 0 
-20 0 -20 0 -20 0 -20 0 -20 0 -19 1 -20 0 -20 1 
-20 1 -20 1 -19 2 -20 1 -20 2 -20 2 -19 2 -20 2 
-20 2 -19 2 -20 3 -19 3 -20 2 -19 3 -20 4 -19 3 
-19 3 -20 4 -19 4 -19 4 -19 4 -19 4 -19 4 -19 5 
-19 5 -19 4 -19 5 -19 5 -18 6 -19 5 -18 6 -19 5 
-18 6 -18 6 -19 6 -18 7 -18 6 -18 7 -18 6 -17 7 
-18 7 -18 7 -17 8 -18 7 -17 8 -17 7 -18 8 -17 8 
-16 8 -17 8 -17 9 -17 8 -16 9 -17 8 -16 9 -16 9 
-16 9 -16 10 -16 9 -16 9 -15 10 -16 10 -15 10 -15 10 
-15 10 -15 10 -15 10 -15 11 -14 10 -15 11 -14 11 -14 11 
-14 11 -14 11 -14 11 5383 3282 300 MP stroke
-13 11 -14 12 -13 11 -13 12 -13 12 -13 12 -13 12 -12 12 
-13 12 -12 12 -12 12 -12 13 -12 12 -11 13 -12 13 -11 12 
-11 13 -11 13 -11 13 -10 14 -11 13 -10 13 -10 13 -10 14 
-10 13 -9 14 -10 14 -9 14 -9 13 -9 14 -9 14 -8 14 
-9 14 -8 15 -8 14 -8 14 -7 15 -8 14 -7 14 -7 15 
-7 15 -7 14 -6 15 -7 15 -6 14 -6 15 -5 15 -6 15 
-5 15 -6 15 -5 15 -4 15 -5 15 -5 15 -4 16 -4 15 
-4 15 -3 15 -4 16 -3 15 -3 15 -3 16 -3 15 -2 16 
-3 15 -2 16 -2 15 -1 16 -2 15 -1 16 -1 15 -1 16 
-1 15 -1 16 0 62 1 15 0 16 1 15 1 16 2 15 
1 16 2 15 1 16 2 15 3 16 2 15 3 16 2 15 
3 15 4 16 3 15 4 15 3 15 4 16 5 15 4 15 
4 15 5 15 5 15 5 15 5 15 6 15 6 15 6 15 
6 15 6 14 6 15 7 15 7 14 7 15 7 14 7 14 
8 15 7 14 8 14 8 14 9 14 8 14 9 14 8 14 
9 14 9 14 10 14 9 13 10 14 10 13 10 13 10 14 
10 13 11 13 10 13 11 13 11 13 11 13 11 12 12 13 
12 12 11 13 12 12 12 12 13 12 12 12 13 12 12 12 
13 12 13 11 13 12 13 11 14 12 13 11 14 11 14 11 
14 11 14 11 14 10 15 11 14 10 15 10 15 11 15 10 
15 10 15 10 15 9 15 10 16 9 16 10 15 9 16 9 
16 9 16 9 17 8 16 9 16 8 17 9 16 8 17 8 
17 8 17 8 17 7 17 8 17 7 18 8 17 7 18 7 
17 7 18 6 18 7 17 6 18 6 18 7 18 6 18 5 
19 6 18 6 18 5 19 5 18 5 19 5 18 5 19 5 
19 5 18 4 19 4 19 4 19 4 19 4 19 4 19 3 
19 3 19 4 20 3 19 3 19 2 19 3 20 2 19 3 
20 2 19 2 19 1 20 2 19 2 20 1 19 1 20 1 
19 1 20 1 19 0 20 1 19 0 20 0 20 0 19 0 
20 0 19 -1 20 0 19 -1 20 -1 19 -1 20 -2 19 -1 
20 -2 19 -1 20 -2 19 -2 19 -2 20 -3 19 -2 19 -3 
19 -3 19 -3 20 -3 19 -3 19 -3 19 -4 19 -3 19 -4 
19 -4 18 -4 19 -5 19 -4 18 -5 19 -5 19 -4 18 -5 
18 -6 19 -5 18 -5 18 -6 18 -6 18 -6 18 -6 18 -6 
18 -6 18 -7 17 -6 18 -7 17 -7 18 -7 17 -7 17 -7 
17 -8 17 -7 17 -8 17 -8 17 -7 16 -9 17 -8 16 -8 
17 -9 16 -8 16 -9 16 -9 16 -9 15 -9 16 -9 15 -9 
16 -10 15 -9 15 -10 2730 1006 300 MP stroke
15 -10 15 -10 15 -10 15 -10 14 -10 14 -11 15 -10 14 -11 
14 -10 13 -11 14 -11 14 -11 13 -11 13 -12 13 -11 13 -12 
13 -11 13 -12 12 -12 13 -11 12 -12 12 -12 12 -13 12 -12 
11 -12 12 -13 11 -12 11 -13 11 -12 11 -13 11 -13 10 -13 
11 -13 10 -13 10 -13 10 -14 9 -13 10 -13 9 -14 9 -13 
9 -14 9 -14 8 -13 9 -14 8 -14 8 -14 8 -14 8 -14 
7 -14 8 -15 7 -14 7 -14 7 -14 6 -15 7 -14 6 -15 
6 -14 6 -15 6 -15 5 -14 6 -15 5 -15 5 -15 5 -15 
4 -15 5 -14 4 -15 4 -15 4 -15 3 -16 4 -15 3 -15 
3 -15 3 -15 3 -15 2 -15 3 -16 2 -15 2 -15 1 -15 
2 -16 1 -15 1 -15 1 -16 1 -15 1 -15 0 -61 -1 -16 
0 -15 -1 -15 -1 -16 -1 -15 -1 -15 -2 -15 -2 -16 -2 -15 
-2 -15 -2 -15 -3 -15 -3 -16 -2 -15 -4 -15 -3 -15 -3 -15 
-4 -15 -4 -15 -4 -15 -4 -15 -5 -15 -4 -15 -5 -14 -5 -15 
-5 -15 -6 -15 -5 -14 -6 -15 -6 -15 -6 -14 -6 -14 -7 -15 
-7 -14 -6 -15 -7 -14 -8 -14 -7 -14 -8 -14 -7 -14 -8 -14 
-8 -14 -9 -14 -8 -14 -9 -13 -9 -14 -9 -13 -9 -14 -9 -13 
-9 -14 -10 -13 -10 -13 -10 -13 -10 -13 -10 -13 -11 -13 -10 -13 
-11 -12 -11 -13 -11 -13 -12 -12 -11 -12 -12 -13 -11 -12 -12 -12 
-12 -12 -12 -12 -13 -11 -12 -12 -13 -12 -13 -11 -13 -11 -13 -12 
-13 -11 -13 -11 -14 -11 -13 -11 -14 -10 -14 -11 -14 -10 -14 -11 
-14 -10 -15 -10 -14 -10 -15 -10 -15 -10 -15 -10 -15 -9 -15 -10 
-15 -9 -16 -9 -15 -10 -16 -9 -15 -8 -16 -9 -16 -9 -16 -8 
-16 -9 -17 -8 -16 -8 -17 -8 -16 -8 -17 -7 -17 -8 -16 -7 
-17 -8 -17 -7 -18 -7 -17 -7 -17 -7 -18 -6 -17 -7 -18 -6 
-17 -6 -18 -6 -18 -6 -18 -6 -17 -6 -18 -5 -19 -5 -18 -6 
-18 -5 -18 -5 -18 -4 -19 -5 -18 -5 -19 -4 -18 -4 -19 -4 
-19 -4 -18 -4 -19 -3 -19 -4 -19 -3 -18 -3 -19 -3 -19 -3 
-19 -3 -19 -3 -19 -2 -19 -2 -20 -2 -19 -2 -19 -2 -19 -2 
-19 -1 -19 -2 -20 -1 -19 -1 -19 -1 -19 -1 -20 0 -19 -1 
-19 0 -19 0 -20 0 -19 0 -19 0 -19 1 -20 0 -19 1 
-19 1 -19 1 -20 1 -19 2 -19 1 -19 2 -19 2 -19 2 
-19 2 -19 2 -19 3 -19 2 -19 3 -19 3 -19 3 -19 3 
-19 3 -18 4 -19 3 -19 4 -18 4 -19 4 -18 4 -19 5 
-18 4 -19 5 -18 5 -18 5 -18 5 -18 5 -18 5 -18 6 
-18 5 -18 6 -17 6 -18 6 -18 6 -17 7 -18 6 -17 7 
-17 6 -17 7 -17 7 -17 7 -17 8 -17 7 -17 8 -16 7 
-17 8 -16 8 -16 8 4981 3484 300 MP stroke
-16 8 -17 9 -15 8 -16 9 -16 8 -16 9 -15 9 -16 9 
-15 9 -15 10 -15 9 -15 10 -15 9 -15 10 -14 10 -15 10 
-14 10 -14 10 -14 11 -14 10 -14 11 -13 10 -14 11 -13 11 
-14 11 -13 11 -13 11 -12 11 -13 12 -13 11 -12 12 -12 12 
-12 11 -12 12 -12 12 -12 12 -11 12 -11 13 -11 12 -11 12 
-11 13 -11 12 -10 13 -11 13 -10 13 -10 12 -10 13 -10 13 
-9 14 -10 13 -9 13 -9 13 -9 14 -8 13 -9 14 -8 13 
-8 14 -8 14 -8 14 -8 14 -7 14 -8 13 -7 15 -7 14 
-6 14 -7 14 -6 14 -7 15 -6 14 -5 14 -6 15 -6 14 
-5 15 -5 14 -5 15 -5 15 -4 14 -5 15 -4 15 -4 14 
-4 15 -3 15 -4 15 -3 15 -3 15 -3 15 -2 15 -3 15 
-2 15 -2 15 -2 15 -2 15 -2 15 -1 15 -1 15 -1 15 
-1 15 0 15 -1 15 0 30 5872 2200 101 MP stroke
gr


end %%Color Dict

eplot
%%EndObject

396 18 moveto
/Helvetica-BoldOblique findfont
[10 0 0 10 0 0] makefont setfont
(Student Version of MATLAB) show

epage
end

showpage

%%Trailer
%%BoundingBox:    70   215   550   589
%%Pages: 001
%%EOF
